[
    {
        "type": "FeatureCollection",
        "name": "proyectos",
        "features": [
            {
                "type": "Feature",
                "properties": {
                    "Nombre": "Biniadris",
                    "Ciudad": "Alaior",
                    "Ambito": "personal",
                    "Bioregion": "baleares",
                    "Descripc1": "Recuperar biodiversidad",
                    
                },
                "geometry": {
                    "type": "Point",
                    "coordinates": [
                        4.13954133,
                        39.93484767
                    ]
                }
            },
            {
                "type": "Feature",
                "properties": {
                    "Nombre": "Can Bustan Mallorca ",
                    "Ciudad": "Baleares",
                    "Ambito": "colectivo",
                    "Bioregion": "baleares",
                    "Descripc1": "Finca demostrativa de Permacultura, y centro de encuentros y formación.",
                    
                },
                "geometry": {
                    "type": "Point",
                    "coordinates": [
                        2.89777048,
                        39.64769631
                    ]
                }
            },
            {
                "type": "Feature",
                "properties": {
                    "Nombre": "SANT JOAN DE BINISSAIDA",
                    "Ciudad": "ES CASTELL",
                    "Ambito": "personal",
                    "Bioregion": "baleares",
                    "Descripc1": "cultivo de olivos en agricultura regenerativa y producción de aceite ecológico",
                },
                "geometry": {
                    "type": "Point",
                    "coordinates": [
                        3.03858511,
                        39.59697822
                    ]
                }
            }
        ]
    }
]
